^C:\USERS\CHASE\DESKTOP\CS-250\LABS\STL LAB\CHASE_STUMP_STL_LAB\STL_LAB_CHASE_STUMP\STL_LAB_CHASE_STUMP\DEBUG\STL_STACK.OBJ
C:\USERS\CHASE\DESKTOP\CS-250\LABS\STL LAB\CHASE_STUMP_STL_LAB\STL_LAB_CHASE_STUMP\DEBUG\STL_LAB_CHASE_STUMP.EXE
C:\USERS\CHASE\DESKTOP\CS-250\LABS\STL LAB\CHASE_STUMP_STL_LAB\STL_LAB_CHASE_STUMP\DEBUG\STL_LAB_CHASE_STUMP.ILK
C:\USERS\CHASE\DESKTOP\CS-250\LABS\STL LAB\CHASE_STUMP_STL_LAB\STL_LAB_CHASE_STUMP\DEBUG\STL_LAB_CHASE_STUMP.PDB
