^C:\USERS\CHASE\DESKTOP\CS-250\LABS\PROJECT2-LINKED-STACK\PROJECT1\PROJECT1\COURSECATALOG.CPP
/c /ZI /nologo /W3 /WX- /diagnostics:classic /sdl /Od /Oy- /D _MBCS /Gm /EHsc /RTC1 /MDd /GS /fp:precise /permissive- /Zc:wchar_t /Zc:forScope /Zc:inline /Fo"DEBUG\\" /Fd"DEBUG\VC141.PDB" /Gd /TP /analyze- C:\USERS\CHASE\DESKTOP\CS-250\LABS\PROJECT2-LINKED-STACK\PROJECT1\PROJECT1\COURSECATALOG.CPP
^C:\USERS\CHASE\DESKTOP\CS-250\LABS\PROJECT2-LINKED-STACK\PROJECT1\PROJECT1\PREREQ_FINDER.CPP
/c /ZI /nologo /W3 /WX- /diagnostics:classic /sdl /Od /Oy- /D _MBCS /Gm /EHsc /RTC1 /MDd /GS /fp:precise /permissive- /Zc:wchar_t /Zc:forScope /Zc:inline /Fo"DEBUG\\" /Fd"DEBUG\VC141.PDB" /Gd /TP /analyze- C:\USERS\CHASE\DESKTOP\CS-250\LABS\PROJECT2-LINKED-STACK\PROJECT1\PROJECT1\PREREQ_FINDER.CPP
^C:\USERS\CHASE\DESKTOP\CS-250\LABS\PROJECT2-LINKED-STACK\PROJECT1\PROJECT1\CUTEST\TESTERBASE.CPP
/c /ZI /nologo /W3 /WX- /diagnostics:classic /sdl /Od /Oy- /D _MBCS /Gm /EHsc /RTC1 /MDd /GS /fp:precise /permissive- /Zc:wchar_t /Zc:forScope /Zc:inline /Fo"DEBUG\\" /Fd"DEBUG\VC141.PDB" /Gd /TP /analyze- C:\USERS\CHASE\DESKTOP\CS-250\LABS\PROJECT2-LINKED-STACK\PROJECT1\PROJECT1\CUTEST\TESTERBASE.CPP
