^C:\USERS\CHASE\DESKTOP\CS-250\LABS\PROJECT2-LINKED-STACK\PROJECT1\PROJECT1\DEBUG\COURSECATALOG.OBJ|C:\USERS\CHASE\DESKTOP\CS-250\LABS\PROJECT2-LINKED-STACK\PROJECT1\PROJECT1\DEBUG\PREREQ_FINDER.OBJ|C:\USERS\CHASE\DESKTOP\CS-250\LABS\PROJECT2-LINKED-STACK\PROJECT1\PROJECT1\DEBUG\TESTERBASE.OBJ
C:\USERS\CHASE\DESKTOP\CS-250\LABS\PROJECT2-LINKED-STACK\PROJECT1\DEBUG\PROJECT1.EXE
C:\USERS\CHASE\DESKTOP\CS-250\LABS\PROJECT2-LINKED-STACK\PROJECT1\DEBUG\PROJECT1.ILK
C:\USERS\CHASE\DESKTOP\CS-250\LABS\PROJECT2-LINKED-STACK\PROJECT1\DEBUG\PROJECT1.PDB
