^C:\USERS\CSTUMP3\DESKTOP\CS-250\LABS\PROJECT3-BINARY-SEARCH-TREES\PROJECT1\PROJECT1\CARPROGRAM.CPP
/c /ZI /nologo /W3 /WX- /diagnostics:classic /sdl /Od /Oy- /D _MBCS /Gm /EHsc /RTC1 /MDd /GS /fp:precise /permissive- /Zc:wchar_t /Zc:forScope /Zc:inline /Fo"DEBUG\\" /Fd"DEBUG\VC141.PDB" /Gd /TP /analyze- C:\USERS\CSTUMP3\DESKTOP\CS-250\LABS\PROJECT3-BINARY-SEARCH-TREES\PROJECT1\PROJECT1\CARPROGRAM.CPP
^C:\USERS\CSTUMP3\DESKTOP\CS-250\LABS\PROJECT3-BINARY-SEARCH-TREES\PROJECT1\PROJECT1\CUTEST\TESTERBASE.CPP
/c /ZI /nologo /W3 /WX- /diagnostics:classic /sdl /Od /Oy- /D _MBCS /Gm /EHsc /RTC1 /MDd /GS /fp:precise /permissive- /Zc:wchar_t /Zc:forScope /Zc:inline /Fo"DEBUG\\" /Fd"DEBUG\VC141.PDB" /Gd /TP /analyze- C:\USERS\CSTUMP3\DESKTOP\CS-250\LABS\PROJECT3-BINARY-SEARCH-TREES\PROJECT1\PROJECT1\CUTEST\TESTERBASE.CPP
^C:\USERS\CSTUMP3\DESKTOP\CS-250\LABS\PROJECT3-BINARY-SEARCH-TREES\PROJECT1\PROJECT1\MAIN.CPP
/c /ZI /nologo /W3 /WX- /diagnostics:classic /sdl /Od /Oy- /D _MBCS /Gm /EHsc /RTC1 /MDd /GS /fp:precise /permissive- /Zc:wchar_t /Zc:forScope /Zc:inline /Fo"DEBUG\\" /Fd"DEBUG\VC141.PDB" /Gd /TP /analyze- C:\USERS\CSTUMP3\DESKTOP\CS-250\LABS\PROJECT3-BINARY-SEARCH-TREES\PROJECT1\PROJECT1\MAIN.CPP
^C:\USERS\SVC-STUDENT\DESKTOP\CS-250\LABS\PROJECT3-BINARY-SEARCH-TREES\PROJECT1\PROJECT1\CARPROGRAM.CPP
/c /ZI /nologo /W3 /WX- /diagnostics:classic /sdl /Od /Oy- /D _MBCS /Gm /EHsc /RTC1 /MDd /GS /fp:precise /permissive- /Zc:wchar_t /Zc:forScope /Zc:inline /Fo"DEBUG\\" /Fd"DEBUG\VC141.PDB" /Gd /TP /analyze- C:\USERS\SVC-STUDENT\DESKTOP\CS-250\LABS\PROJECT3-BINARY-SEARCH-TREES\PROJECT1\PROJECT1\CARPROGRAM.CPP
^C:\USERS\SVC-STUDENT\DESKTOP\CS-250\LABS\PROJECT3-BINARY-SEARCH-TREES\PROJECT1\PROJECT1\CUTEST\TESTERBASE.CPP
/c /ZI /nologo /W3 /WX- /diagnostics:classic /sdl /Od /Oy- /D _MBCS /Gm /EHsc /RTC1 /MDd /GS /fp:precise /permissive- /Zc:wchar_t /Zc:forScope /Zc:inline /Fo"DEBUG\\" /Fd"DEBUG\VC141.PDB" /Gd /TP /analyze- C:\USERS\SVC-STUDENT\DESKTOP\CS-250\LABS\PROJECT3-BINARY-SEARCH-TREES\PROJECT1\PROJECT1\CUTEST\TESTERBASE.CPP
^C:\USERS\SVC-STUDENT\DESKTOP\CS-250\LABS\PROJECT3-BINARY-SEARCH-TREES\PROJECT1\PROJECT1\MAIN.CPP
/c /ZI /nologo /W3 /WX- /diagnostics:classic /sdl /Od /Oy- /D _MBCS /Gm /EHsc /RTC1 /MDd /GS /fp:precise /permissive- /Zc:wchar_t /Zc:forScope /Zc:inline /Fo"DEBUG\\" /Fd"DEBUG\VC141.PDB" /Gd /TP /analyze- C:\USERS\SVC-STUDENT\DESKTOP\CS-250\LABS\PROJECT3-BINARY-SEARCH-TREES\PROJECT1\PROJECT1\MAIN.CPP
