^C:\USERS\CSTUMP3\DESKTOP\CS-250\LABS\LAB-ITERATORS\PROJECT1\PROJECT1\MAIN.CPP
C:\USERS\CSTUMP3\DESKTOP\CS-250\LABS\LAB-ITERATORS\PROJECT1\PROJECT1\DEBUG\VC141.PDB
C:\USERS\CSTUMP3\DESKTOP\CS-250\LABS\LAB-ITERATORS\PROJECT1\PROJECT1\DEBUG\VC141.IDB
C:\USERS\CSTUMP3\DESKTOP\CS-250\LABS\LAB-ITERATORS\PROJECT1\PROJECT1\DEBUG\MAIN.OBJ
