^C:\USERS\SVC-STUDENT\DESKTOP\CS-250\LABS\LAB-ITERATORS\PROJECT1\PROJECT1\DEBUG\MAIN.OBJ
/OUT:"C:\USERS\SVC-STUDENT\DESKTOP\CS-250\LABS\LAB-ITERATORS\PROJECT1\DEBUG\PROJECT1.EXE" /INCREMENTAL /NOLOGO KERNEL32.LIB USER32.LIB GDI32.LIB WINSPOOL.LIB COMDLG32.LIB ADVAPI32.LIB SHELL32.LIB OLE32.LIB OLEAUT32.LIB UUID.LIB ODBC32.LIB ODBCCP32.LIB /MANIFEST /MANIFESTUAC:"level='asInvoker' uiAccess='false'" /manifest:embed /DEBUG:FASTLINK /PDB:"C:\USERS\SVC-STUDENT\DESKTOP\CS-250\LABS\LAB-ITERATORS\PROJECT1\DEBUG\PROJECT1.PDB" /TLBID:1 /DYNAMICBASE /NXCOMPAT /IMPLIB:"C:\USERS\SVC-STUDENT\DESKTOP\CS-250\LABS\LAB-ITERATORS\PROJECT1\DEBUG\PROJECT1.LIB" /MACHINE:X86 DEBUG\MAIN.OBJ
^C:\USERS\CSTUMP3\DESKTOP\CS-250\LABS\LAB-ITERATORS\PROJECT1\PROJECT1\DEBUG\MAIN.OBJ
/OUT:"C:\USERS\CSTUMP3\DESKTOP\CS-250\LABS\LAB-ITERATORS\PROJECT1\DEBUG\PROJECT1.EXE" /INCREMENTAL /NOLOGO KERNEL32.LIB USER32.LIB GDI32.LIB WINSPOOL.LIB COMDLG32.LIB ADVAPI32.LIB SHELL32.LIB OLE32.LIB OLEAUT32.LIB UUID.LIB ODBC32.LIB ODBCCP32.LIB /MANIFEST /MANIFESTUAC:"level='asInvoker' uiAccess='false'" /manifest:embed /DEBUG:FASTLINK /PDB:"C:\USERS\CSTUMP3\DESKTOP\CS-250\LABS\LAB-ITERATORS\PROJECT1\DEBUG\PROJECT1.PDB" /TLBID:1 /DYNAMICBASE /NXCOMPAT /IMPLIB:"C:\USERS\CSTUMP3\DESKTOP\CS-250\LABS\LAB-ITERATORS\PROJECT1\DEBUG\PROJECT1.LIB" /MACHINE:X86 DEBUG\MAIN.OBJ
